{
  "$schema": "http://json.schemastore.org/template",
  "identity": "DotnetWeb.Repository.CSharp",
  "groupIdentity": "DotnetWeb.Repository",
  "author": "DotnetWeb",
  "classifications": ["Common", "Library"],
  "name": "DotnetWeb repository template",
  "shortName": "dotnet-web-repository",
  "tags": {
    "language": "C#"
  },
  "sourceName": "DotnetWeb"
}